{
    "scopeName": "source.michelson",
    "name": "Michelson",
    "patterns": [
        {
            "include": "#bytes"
        },
        {
            "include": "#string"
        },
        {
            "include": "#number"
        },
        {
            "include": "#comment"
        },
        {
            "include": "#multicomment"
        },
        {
            "include": "#block"
        },
        {
            "include": "#data"
        },
        {
            "include": "#instruction"
        },
        {
            "include": "#type"
        },
        {
            "include": "#macros"
        },
        {
            "include": "#annotations"
        }
    ],
    "repository": {
        "string": {
            "name": "string.quoted.michelson",
            "begin": "\"",
            "end": "\"",
            "patterns": [
                {
                    "name": "string.quoted.michelson",
                    "match": "\\\\."
                }
            ]
        },
        "number": {
            "patterns": [
                {
                    "name": "constant.numeric.michelson",
                    "match": "\\b(-?[0-9]+)\\b"
                }
            ]
        },
        "bytes": {
            "patterns": [
                {
                    "name": "constant.numeric.michelson",
                    "match": "\\b(0x[0-9A-Fa-f]+)\\b"
                }
            ]
        },
        "comment": {
            "name": "comment.line.number-sign.michelson",
            "begin": "#",
            "end": "\n",
            "patterns": [
                {
                    "name": "constant.character.escape.michelson",
                    "match": "wordPattern"
                }
            ]
        },
        "multicomment": {
            "name": "comment.block.michelson",
            "begin": "\\/\\*",
            "end": "\\*\\/",
            "patterns": [
                {
                    "name": "constant.character.escape.michelson",
                    "match": "wordPattern"
                }
            ]
        },
        "block": {
            "patterns": [
                {
                    "match": "\\b(storage|parameter|code)\\b",
                    "name": "keyword.control.michelson"
                }
            ]
        },
        "data": {
            "patterns": [
                {
                    "match": "\\b(False|Pair|Elt|Some|None|Unit|True|Right|Lambda_rec|Left)\\b",
                    "name": "variable.other.enummember.michelson"
                }
            ]
        },
        "instruction": {
            "patterns": [
                {
                    "match": "\\b(SHA512|HASH_KEY|SIZE|SAPLING_VERIFY_UPDATE|SAPLING_EMPTY_STATE|RENAME|UNPACK|IF_NONE|UNPAIR|BLAKE2B|AMOUNT|DUP|NEG|SELF_ADDRESS|ISNAT|DIG|CHAIN_ID|LSR|ABS|CREATE_CONTRACT|SHA256|JOIN_TICKETS|LEVEL|CHECK_SIGNATURE|STEPS_TO_QUOTA|SELF|DIP|AND|COMPARE|MAP|APPLY|NOT|IMPLICIT_ACCOUNT|LT|UNIT|EMIT|SET_DELEGATE|EMPTY_BIG_MAP|SUB|ADD|VOTING_POWER|CDR|GT|IF_CONS|CONS|LSL|DUG|PACK|SHA3|SOURCE|SUB_MUTEZ|LAMBDA|RIGHT|CREATE_ACCOUNT|CAST|NEQ|ITER|FAILWITH|PUSH|OPEN_CHEST|SOME|BALANCE|NIL|CAR|UPDATE|TOTAL_VOTING_POWER|PAIR|LAMBDA_REC|ADDRESS|IF|NEVER|SWAP|EMPTY_MAP|MUL|INT|KECCAK|LEFT|SPLIT_TICKET|EDIV|LOOP|TICKET|LE|PAIRING_CHECK|MIN_BLOCK_TIME|OR|GET_AND_UPDATE|NONE|IF_LEFT|GET|NOW|TRANSFER_TOKENS|LOOP_LEFT|CONTRACT|TICKET_DEPRECATED|VIEW|EMPTY_SET|XOR|READ_TICKET|EQ|GE|MEM|SENDER|DROP|CONCAT|EXEC|SLICE)\\b",
                    "name": "support.function.michelson"
                }
            ]
        },
        "type": {
            "patterns": [
                {
                    "match": "\\b(sapling_state|contract|address|chest_key|key_hash|operation|view|or|int|string|lambda|sapling_transaction|bls12_381_fr|sapling_transaction_deprecated|tx_rollup_l2_address|mutez|map|bls12_381_g1|bool|bytes|chest|list|nat|option|set|big_map|signature|chain_id|pair|constant|ticket|timestamp|key|unit|never|bls12_381_g2)\\b",
                    "name": "entity.name.type.michelson support.type.michelson"
                }
            ]
        },
        "annotations": {
            "patterns": [
                {
                    "match": "(?<=\\s)%[A-z_0-9%@]*",
                    "name": "entity.other.attribute-name.michelson"
                },
                {
                    "match": "(?<=\\s)@[A-z_0-9%]+\\b",
                    "name": "entity.other.attribute-name.michelson"
                },
                {
                    "match": "(?<=\\s):[A-z_0-9]+\\b",
                    "name": "entity.other.attribute-name.michelson"
                }
            ]
        }
    }
}